// Jest Snapshot v1, https://goo.gl/fbAQLP

exports[`renders homepage unchanged 1`] = `
<div>
  <div
    class="baseLayout"
  >
    <header
      class="baseLayout__header"
    >
      <div
        class="topMenu"
      >
        <div
          class="appNavbar"
        >
          <a
            class="brand"
            href="/"
          >
            Site Title
          </a>
          <button
            class="toggleButton"
          >
            <span
              class="toggleIcon"
            />
          </button>
          <div
            class="navbarCollapse"
          >
            <div
              class="navbar"
            >
              <a
                class="navLink"
                href="/posts"
              >
                Posts
              </a>
              <a
                class="navLink"
                href="/forum/categories"
              >
                Forum
              </a>
            </div>
            <form
              class="searchForm"
            >
              <input
                aria-label="Search"
                class="searchInput"
                placeholder="Search"
                type="search"
              />
              <button
                class="searchButton"
                type="submit"
              >
                Search
              </button>
            </form>
          </div>
        </div>
      </div>
    </header>
    <div
      class="baseLayout__content"
    >
      <section
        class="advertBlock"
      >
        <p>
          Your advertisement could be here
        </p>
      </section>
      <div
        class="container"
      >
        <h1
          class="pt-3 pb-3"
        >
          Welcome to the Site Title
        </h1>
        <div
          class="row"
        >
          <div
            class="col-md-8"
          >
            <div
              class="card mb-3"
            >
              <img
                alt=""
                class="card-img-top"
                src=""
              />
              <div
                class="card-body"
              >
                <h5
                  class="card-title"
                >
                  Card title
                </h5>
                <p
                  class="card-text"
                >
                  Some quick example text to build on the card title and make up the bulk of the cards content.
                </p>
              </div>
              <div
                class="card-body"
              >
                <a
                  class="card-link"
                  href="#"
                >
                  Card link
                </a>
              </div>
            </div>
            <div
              class="card mb-3"
            >
              <img
                alt=""
                class="card-img-top"
                src=""
              />
              <div
                class="card-body"
              >
                <h5
                  class="card-title"
                >
                  Card title
                </h5>
                <p
                  class="card-text"
                >
                  Some quick example text to build on the card title and make up the bulk of the cards content.
                </p>
              </div>
              <div
                class="card-body"
              >
                <a
                  class="card-link"
                  href="#"
                >
                  Card link
                </a>
              </div>
            </div>
            <div
              class="card mb-3"
            >
              <img
                alt=""
                class="card-img-top"
                src=""
              />
              <div
                class="card-body"
              >
                <h5
                  class="card-title"
                >
                  Card title
                </h5>
                <p
                  class="card-text"
                >
                  Some quick example text to build on the card title and make up the bulk of the cards content.
                </p>
              </div>
              <div
                class="card-body"
              >
                <a
                  class="card-link"
                  href="#"
                >
                  Card link
                </a>
              </div>
            </div>
          </div>
          <div
            class="col-md-4"
          >
            <div
              class="linkCategories"
            >
              <h5>
                Links
              </h5>
            </div>
          </div>
        </div>
      </div>
      <footer>
        <hr />
        <span>
          Im here to stay (Footer)
        </span>
      </footer>
    </div>
  </div>
</div>
`;
